// Jest Snapshot v1, https://goo.gl/fbAQLP

exports[`Should sanp component should retrieve data and render component 1`] = `
<withTheme(Card)
  elevation={3}
  style={
    Object {
      "marginBottom": 5,
      "marginLeft": 10,
      "marginRight": 10,
      "marginTop": 5,
    }
  }
>
  <Card.Content
    style={
      Object {
        "marginBottom": 10,
      }
    }
  >
    <Title>
      A Night At The Opera (2011 Remaster)
    </Title>
  </Card.Content>
  <withTheme(Card.Cover)
    source={
      Object {
        "uri": "https://i.scdn.co/image/f11aa4ef8ef3ff97ab9322f362f77f2eec4744a5",
      }
    }
  />
  <Card.Actions
    style={
      Object {
        "alignItems": "center",
        "flexDirection": "row",
        "justifyContent": "space-between",
      }
    }
  >
    <View
      style={
        Object {
          "flex": 2,
          "flexDirection": "row",
          "justifyContent": "flex-start",
        }
      }
    >
      <withTheme(Button)
        color="#FF9100"
        onPress={[Function]}
      >
        Open On Spotify
      </withTheme(Button)>
    </View>
    <View
      style={
        Object {
          "flex": 1,
          "flexDirection": "row",
          "justifyContent": "flex-end",
        }
      }
    />
  </Card.Actions>
</withTheme(Card)>
`;
